…
``` r
# prints "decennial_variables_2010"
decennial_variables_2010
```

``` output
# A tibble: 8,959 × 3
   name    label                                concept         
   <chr>   <chr>                                <chr>           
 1 H001001 Total                                HOUSING UNITS   
 2 H002001 Total                                URBAN AND RURAL 
 3 H002002 Total!!Urban                         URBAN AND RURAL 
 4 H002003 Total!!Urban!!Inside urbanized areas URBAN AND RURAL 
 5 H002004 Total!!Urban!!Inside urban clusters  URBAN AND RURAL 
 6 H002005 Total!!Rural                         URBAN AND RURAL 
 7 H002006 Total!!Not defined for this file     URBAN AND RURAL 
 8 H003001 Total                                OCCUPANCY STATUS
 9 H003002 Total!!Occupied                      OCCUPANCY STATUS
10 H003003 Total!!Vacant                        OCCUPANCY STATUS
# ℹ 8,949 more rows
```
…
